{
    "com.live.videochats.arebic": {
        "app_logo": "",
        "rate_app": {
            "package_id": "com.live.videochats.arebic",
            "is_rate_app": true,
            "rate_app_url": "https://play.google.com/store/apps/details?id=com.live.videochats.arebic",
            "rate_message": "Please"
        },
        "About_App": {
            "about_title": "Arebic",
            "is_override": false,
            "is_about_app": true,
            "about_message": "Random",
            "version_detail": "version : 1.0.0",
            "registration_detail": "Arebic"
        },
        "app_lovin": {
            "sdk_key": "l2eHJCxgHTn4tTHns3A55HzXG6ekoyDJigM2SxRmGSN6T1bNmT37tTDW0UxVBVkUepJxXKxFQ8yPMONBdyKO3A",
            "id_unit_intra": "11ca10e1407e8d0f",
            "is_banner_ads": false,
            "is_native_ads": false,
            "id_unit_banner": "c627779fcaa3cbe3",
            "is_rewared_ads": true,
            "is_unlimited_ads": false,
            "is_interstitial_ads": false,
            "rewared_ads_unit_id": "788e6826808014df",
            "id_unit_native_multiple": {
                "small": "9632213c2b615176",
                "manual": "b8408ff8ba0188c3",
                "medium": "8e4ac4cda97b3d52"
            },
            "is_open_ads": false
        },
        "app_title": "",
        "extra_url": "https://gitlab.com/bitcodingsolutions/booya/-/raw/main/App_Setting.json",
        "share_app": {
            "share_title": "Share",
            "is_share_app": false,
            "share_message": "Now"
        },
        "ad_setting": {
            "is_full_ads": false,
            "onesignal_id": "ae6e77d4-07e5-42ba-a8ef-6b396d1bfe11",
            "ads_loading_text": "Ad is loading...",
            "app_version_code": "8",
            "global_intra_interval_click": "1",
            "interstitial_ad_time_interval": "0",
            "seconds_require_triger_reward": "25"
        },
        "app_update": {
            "title": "Enjoy",
            "app_icon": "https://play-lh.googleusercontent.com/DFrL4OmwEWMQnRjs9tBcekNn6DYrlehENI0aAD5XphVvenROVKOon7sfLf84YhmyM08=w240-h480-rw",
            "package_id": "com.live.videochats.arebic",
            "website_url": "https://videochat-llc.blogspot.com/",
            "default_message": "Don\u2019t",
            "is_popup_dialog": true,
            "is_update_require": false,
            "updated_version_code": "50"
        },
        "custom_ads": {
            "qureka_link": "https://490.go.qureka.com/intro/question",
            "is_quraka_banner": true,
            "is_quraka_intera": true,
            "quraka_intra_image": [
                "https://github.com/pragneshpalsanabitcoding/image_quraka/blob/main/360X640_1.png?raw=true",
                "https://github.com/pragneshpalsanabitcoding/image_quraka/blob/main/360X640_2.png?raw=true",
                "https://github.com/pragneshpalsanabitcoding/image_quraka/blob/main/360X640_3.png?raw=true",
                "https://github.com/pragneshpalsanabitcoding/image_quraka/blob/main/360X640_4.png?raw=true",
                "https://github.com/pragneshpalsanabitcoding/image_quraka/blob/main/360X640_5.png?raw=true",
                "https://github.com/pragneshpalsanabitcoding/image_quraka/blob/main/360X640_6.png?raw=true"
            ],
            "quraka_banner_image": [
                "https://github.com/pragneshpalsanabitcoding/image_quraka/blob/main/2.jpg?raw=true",
                "https://github.com/pragneshpalsanabitcoding/image_quraka/blob/main/3.jpg?raw=true",
                "https://github.com/pragneshpalsanabitcoding/image_quraka/blob/main/320x50.jpg?raw=true",
                "https://github.com/pragneshpalsanabitcoding/image_quraka/blob/main/4.jpg?raw=true",
                "https://github.com/pragneshpalsanabitcoding/image_quraka/blob/main/5.jpg?raw=true",
                "https://github.com/pragneshpalsanabitcoding/image_quraka/blob/main/6.jpg?raw=true"
            ],
            "close_button_to_direct_web": true
        },
        "google_ads": {
            "is_open_ads": true,
            "is_banner_ads": true,
            "is_native_ads": true,
            "is_rewared_ads": true,
            "is_interstitial_ads": true,
            "rewared_ads_unit_id": "788e6826808014df",
            "no_of_click_interstitial": "1",
            "banner_ad_unit_id_android": "/6499/example/banner",
            "native_ads_unit_id_android": "/6499/example/native",
            "app_open_ad_unit_id_android": "/6499/example/app-open",
            "interstitial_ad_unit_id_android": "/6499/example/interstitial",
            "native_video_ads_unit_id_android": "/6499/example/native-video"
        },
        "exit_dialog": {
            "exit_title": "Exit",
            "exit_message": "Do",
            "is_exit_require": true
        },
        "ads_sequence": [
            "custom_ads"
        ],
        "error_report": {
            "email_id": "mailto:videochat.llc@gmail.com",
            "is_error_report_support": true
        },
        "facebook_ads": {
            "is_banner_ads": true,
            "is_native_ads": true,
            "is_rewared_ads": true,
            "is_interstitial_ads": true,
            "rewared_ads_unit_id": "633714137717004_63371494433590",
            "no_of_click_interstitial": 1,
            "banner_ad_unit_id_android": "633714137717004_63371494383590",
            "native_ads_unit_id_android": "",
            "interstitial_ad_unit_id_android": "633714137717004_63371494483590",
            "native_video_ads_unit_id_android": "633714137717004_63371494483590"
        },
        "more_app_url": "https://play.google.com/store/apps/developer?id=VideoChat.llc",
        "terms_of_use": {
            "terms_of_use": "pages.flycricket.io/videochats-llc/privacy.html\u00a0",
            "is_terms_of_use": true,
            "is_system_browser": true
        },
        "reward_dialog": {
            "reward_message": "Watch",
            "version_detail": "version",
            "is_reward_require": true
        },
        "more_live_apps": "https://gitlab.com/bitcodingsolutions/Prank-API/-/raw/main/Live_Apps.json",
        "privacy_policy": {
            "privacy_policy": "pages.flycricket.io/videochats-llc/privacy.html\u00a0",
            "is_privacy_policy": true,
            "is_system_browser": true
        },
        "iptv_player_url": "",
        "feedback_support": {
            "email_id": "mailto:videochat.llc@gmail.com",
            "email_message": "Hi,",
            "email_subject": "Feedback",
            "feedback_title": "Feedback",
            "feedback_message": "Hi,",
            "is_feedback_support": true
        }
    }
}